1.0000e-45	0013	1.1584e+01	0004	2.3600e-02
1.9783e-05	0019	1.2608e+01	0004	1.4138e-04
7.9783e-05	0034	1.4892e+01	0004	1.6152e-04
1.3978e-04	0033	1.4404e+01	0004	4.2107e-05
1.9978e-04	0032	1.4216e+01	0004	4.0790e-05
2.5978e-04	0037	1.7339e+01	0005	8.6297e-06
3.1978e-04	0031	1.4117e+01	0004	2.7750e-05
3.7978e-04	0031	1.4172e+01	0004	2.2929e-05
4.3978e-04	0031	1.4224e+01	0004	1.8781e-05
4.9978e-04	0031	1.4097e+01	0004	1.5675e-05
5.5978e-04	0037	1.7444e+01	0005	4.6511e-06
6.1978e-04	0030	1.4017e+01	0004	1.6263e-05
6.7978e-04	0030	1.3986e+01	0004	1.4158e-05
7.3978e-04	0030	1.4006e+01	0004	1.2506e-05
7.9978e-04	0030	1.3905e+01	0004	1.1226e-05
8.5978e-04	0030	1.4006e+01	0004	1.0154e-05
9.1978e-04	0030	1.4259e+01	0004	9.3885e-06
9.7978e-04	0030	1.4019e+01	0004	8.8471e-06
1.0398e-03	0030	1.4013e+01	0004	8.3970e-06
1.0998e-03	0029	1.3955e+01	0004	9.6432e-06
1.1598e-03	0029	1.4026e+01	0004	8.9773e-06
1.2198e-03	0029	1.3853e+01	0004	8.4522e-06
1.2798e-03	0029	1.3869e+01	0004	8.0203e-06
1.3398e-03	0029	1.3931e+01	0004	7.6543e-06
1.3998e-03	0029	1.3858e+01	0004	6.8698e-06
1.4598e-03	0029	1.3883e+01	0004	6.2501e-06
1.5198e-03	0029	1.3813e+01	0004	6.3222e-06
1.5798e-03	0029	1.3846e+01	0004	6.0950e-06
1.6398e-03	0029	1.3922e+01	0004	5.9442e-06
1.6998e-03	0029	1.3876e+01	0004	5.8293e-06
1.7598e-03	0029	1.3953e+01	0004	5.7383e-06
1.8198e-03	0029	1.3814e+01	0004	5.9578e-06
1.8798e-03	0029	1.3887e+01	0004	5.9315e-06
1.9398e-03	0029	1.3790e+01	0004	5.6909e-06
1.9998e-03	0029	1.3838e+01	0004	5.3240e-06
2.0598e-03	0028	1.3687e+01	0004	6.6323e-06
2.1198e-03	0029	1.3840e+01	0004	4.9022e-06
2.1798e-03	0028	1.3768e+01	0004	6.6297e-06
2.2398e-03	0028	1.3777e+01	0004	6.3898e-06
2.2998e-03	0028	1.3730e+01	0004	5.6636e-06
2.3598e-03	0028	1.3768e+01	0004	5.5256e-06
2.4198e-03	0028	1.3782e+01	0004	5.3890e-06
2.4798e-03	0028	1.3710e+01	0004	5.2147e-06
2.5398e-03	0028	1.3664e+01	0004	5.1142e-06
2.5998e-03	0028	1.3779e+01	0004	5.0097e-06
2.6598e-03	0028	1.3684e+01	0004	4.9187e-06
2.7198e-03	0028	1.3603e+01	0004	4.8330e-06
2.7798e-03	0028	1.3857e+01	0004	4.7421e-06
2.8398e-03	0028	1.3678e+01	0004	4.6272e-06
2.8998e-03	0028	1.3718e+01	0004	4.4617e-06
2.9598e-03	0028	1.3661e+01	0004	4.3910e-06
3.0198e-03	0028	1.3808e+01	0004	4.3565e-06
3.0798e-03	0028	1.3741e+01	0004	4.3314e-06
3.1398e-03	0028	1.3726e+01	0004	4.1382e-06
3.1998e-03	0028	1.3630e+01	0004	4.1978e-06
3.2598e-03	0028	1.3693e+01	0004	4.1894e-06
3.3198e-03	0028	1.3540e+01	0004	4.1622e-06
3.3798e-03	0028	1.3509e+01	0004	4.1287e-06
3.4398e-03	0027	1.3499e+01	0004	4.8845e-06
3.4998e-03	0033	1.6801e+01	0005	1.3334e-06
3.5598e-03	0033	1.6903e+01	0005	1.2981e-06
3.6198e-03	0027	1.3592e+01	0004	4.6472e-06
3.6798e-03	0027	1.3676e+01	0004	4.4499e-06
3.7398e-03	0027	1.4010e+01	0004	4.3383e-06
3.7998e-03	0027	1.3767e+01	0004	4.1671e-06
3.8598e-03	0027	1.3295e+01	0004	3.9986e-06
3.9198e-03	0027	1.3374e+01	0004	3.8298e-06
3.9798e-03	0027	1.3454e+01	0004	3.6731e-06
4.0398e-03	0027	1.3797e+01	0004	3.5273e-06
4.0998e-03	0027	1.3523e+01	0004	3.4127e-06
4.1598e-03	0026	1.3288e+01	0004	4.0977e-06
4.2198e-03	0026	1.3135e+01	0004	3.8928e-06
4.2798e-03	0026	1.3306e+01	0004	3.8470e-06
4.3398e-03	0026	1.3377e+01	0004	3.8552e-06
4.3998e-03	0026	1.3412e+01	0004	3.8681e-06
4.4598e-03	0026	1.3340e+01	0004	3.8719e-06
4.5198e-03	0027	1.3588e+01	0004	3.9596e-06
4.5798e-03	0027	1.3571e+01	0004	2.9354e-06
4.6398e-03	0027	1.3509e+01	0004	2.9540e-06
4.6998e-03	0026	1.3405e+01	0004	3.3761e-06
4.7598e-03	0026	1.3464e+01	0004	3.6255e-06
4.8198e-03	0026	1.3427e+01	0004	3.4660e-06
4.8798e-03	0026	1.3408e+01	0004	3.3486e-06
4.9398e-03	0026	1.3488e+01	0004	3.2533e-06
4.9998e-03	0026	1.3468e+01	0004	3.0886e-06
5.0598e-03	0026	1.3457e+01	0004	3.0806e-06
5.1198e-03	0026	1.3433e+01	0004	3.2662e-06
5.1798e-03	0026	1.3513e+01	0004	3.0987e-06
5.2398e-03	0026	1.3458e+01	0004	3.3273e-06
5.2998e-03	0027	1.3577e+01	0004	2.2243e-06
5.3598e-03	0026	1.3469e+01	0004	3.2333e-06
5.4198e-03	0026	1.3433e+01	0004	3.0479e-06
5.4798e-03	0026	1.3472e+01	0004	3.0272e-06
5.5398e-03	0028	1.3731e+01	0004	3.7032e-06
5.5998e-03	0025	1.3298e+01	0004	2.7385e-06
5.6598e-03	0025	1.3262e+01	0004	2.9897e-06
5.7198e-03	0026	1.3452e+01	0004	2.3622e-06
5.7798e-03	0025	1.3308e+01	0004	3.0508e-06
5.8398e-03	0025	1.3288e+01	0004	2.9530e-06
5.8998e-03	0025	1.3275e+01	0004	2.9314e-06
5.9598e-03	0025	1.3344e+01	0004	2.9318e-06
6.0198e-03	0025	1.3306e+01	0004	3.0340e-06
6.0798e-03	0026	1.3444e+01	0004	2.3826e-06
6.1398e-03	0026	1.3907e+01	0004	2.3356e-06
6.1998e-03	0026	1.3448e+01	0004	2.3503e-06
6.2598e-03	0026	1.3434e+01	0004	2.3806e-06
6.3198e-03	0026	1.3486e+01	0004	2.4161e-06
6.3798e-03	0026	1.3397e+01	0004	2.4295e-06
6.4398e-03	0026	1.3405e+01	0004	2.4503e-06
6.4998e-03	0026	1.3433e+01	0004	2.4676e-06
6.5598e-03	0026	1.3457e+01	0004	2.4822e-06
6.6198e-03	0026	1.3411e+01	0004	2.5054e-06
6.6798e-03	0026	1.3465e+01	0004	2.5226e-06
6.7398e-03	0026	1.3452e+01	0004	2.5535e-06
6.7998e-03	0026	1.3448e+01	0004	2.5762e-06
6.8598e-03	0026	1.3395e+01	0004	2.6040e-06
6.9198e-03	0026	1.3420e+01	0004	2.6326e-06
6.9798e-03	0026	1.3500e+01	0004	2.6583e-06
7.0398e-03	0026	1.3465e+01	0004	2.6880e-06
7.0998e-03	0026	1.3779e+01	0004	2.7133e-06
7.1598e-03	0026	1.3410e+01	0004	2.7466e-06
7.2198e-03	0026	1.3482e+01	0004	2.7693e-06
7.2798e-03	0026	1.3497e+01	0004	2.8001e-06
7.3398e-03	0026	1.3475e+01	0004	2.8233e-06
7.3998e-03	0026	1.3509e+01	0004	2.8533e-06
7.4598e-03	0027	1.3623e+01	0004	2.0461e-06
7.5198e-03	0027	1.3617e+01	0004	2.2815e-06
7.5798e-03	0027	1.3594e+01	0004	2.2980e-06
7.6398e-03	0027	1.3599e+01	0004	2.3157e-06
7.6998e-03	0027	1.3604e+01	0004	2.3260e-06
7.7598e-03	0027	1.3613e+01	0004	2.3430e-06
7.8198e-03	0027	1.3575e+01	0004	2.1583e-06
7.8798e-03	0027	1.3831e+01	0004	2.4543e-06
7.9398e-03	0027	1.3189e+01	0004	2.2073e-06
7.9998e-03	0027	1.3185e+01	0004	2.2074e-06
8.0598e-03	0027	1.3157e+01	0004	2.2087e-06
8.1198e-03	0028	1.3391e+01	0004	6.2278e-06
8.1798e-03	0027	1.3194e+01	0004	2.1671e-06
8.2398e-03	0027	1.3419e+01	0004	2.4881e-06
8.2998e-03	0027	1.3506e+01	0004	2.6064e-06
8.3598e-03	0027	1.3548e+01	0004	2.6467e-06
8.4198e-03	0027	1.3541e+01	0004	2.6618e-06
8.4798e-03	0027	1.3622e+01	0004	2.6496e-06
8.5398e-03	0027	1.3554e+01	0004	2.6491e-06
8.5998e-03	0027	1.4043e+01	0004	2.6609e-06
8.6598e-03	0027	1.3233e+01	0004	2.4957e-06
8.7198e-03	0028	1.3335e+01	0004	2.1910e-06
8.7798e-03	0027	1.3186e+01	0004	2.5252e-06
8.8398e-03	0027	1.3181e+01	0004	2.6458e-06
8.8998e-03	0027	1.3408e+01	0004	2.6817e-06
8.9598e-03	0027	1.3577e+01	0004	2.6552e-06
9.0198e-03	0027	1.3605e+01	0004	2.6752e-06
9.0798e-03	0027	1.3551e+01	0004	2.6772e-06
9.1398e-03	0027	1.3561e+01	0004	2.6805e-06
9.1998e-03	0027	1.3536e+01	0004	2.6869e-06
9.2598e-03	0027	1.3600e+01	0004	2.6857e-06
9.3198e-03	0027	1.3564e+01	0004	2.6996e-06
9.3798e-03	0027	1.3504e+01	0004	2.7009e-06
9.4398e-03	0027	1.3617e+01	0004	2.7048e-06
9.4998e-03	0027	1.3495e+01	0004	2.7088e-06
9.5598e-03	0027	1.3486e+01	0004	2.7165e-06
9.6198e-03	0027	1.3532e+01	0004	2.7230e-06
9.6798e-03	0027	1.3435e+01	0004	2.7218e-06
9.7398e-03	0027	1.3478e+01	0004	2.7332e-06
9.7998e-03	0027	1.3494e+01	0004	2.7419e-06
9.8598e-03	0027	1.3439e+01	0004	2.7446e-06
9.9198e-03	0027	1.3572e+01	0004	3.5166e-06
9.9798e-03	0028	1.3691e+01	0004	2.4210e-06
1.0040e-02	0027	1.3555e+01	0004	2.5528e-06
1.0100e-02	0027	1.3567e+01	0004	2.6224e-06
1.0160e-02	0028	1.3635e+01	0004	2.1378e-06
1.0220e-02	0027	1.3827e+01	0004	2.6292e-06
1.0280e-02	0027	1.3506e+01	0004	2.6584e-06
1.0340e-02	0027	1.3509e+01	0004	2.6682e-06
1.0400e-02	0027	1.3603e+01	0004	2.6692e-06
1.0460e-02	0027	1.3559e+01	0004	2.6544e-06
1.0520e-02	0026	1.3452e+01	0004	2.7704e-06
1.0580e-02	0027	1.3571e+01	0004	2.4908e-06
1.0640e-02	0027	1.3590e+01	0004	2.5863e-06
1.0700e-02	0027	1.3456e+01	0004	2.6420e-06
1.0760e-02	0027	1.3651e+01	0004	2.6508e-06
1.0820e-02	0027	1.3606e+01	0004	2.6646e-06
1.0880e-02	0027	1.3693e+01	0004	2.6673e-06
1.0940e-02	0027	1.3616e+01	0004	2.6669e-06
1.1000e-02	0027	1.3576e+01	0004	2.6649e-06
1.1060e-02	0027	1.3568e+01	0004	2.6468e-06
1.1120e-02	0027	1.3578e+01	0004	2.6471e-06
1.1180e-02	0027	1.3547e+01	0004	2.6654e-06
1.1240e-02	0027	1.3571e+01	0004	2.6701e-06
1.1300e-02	0027	1.3574e+01	0004	2.6642e-06
1.1360e-02	0027	1.3586e+01	0004	2.6576e-06
1.1420e-02	0027	1.3562e+01	0004	2.6601e-06
1.1480e-02	0027	1.3554e+01	0004	2.6498e-06
1.1540e-02	0033	1.6866e+01	0005	7.8454e-07
1.1600e-02	0028	1.3923e+01	0004	2.0614e-06
1.1660e-02	0028	1.3717e+01	0004	2.0711e-06
1.1720e-02	0028	1.3719e+01	0004	2.0677e-06
1.1780e-02	0028	1.3739e+01	0004	2.0792e-06
1.1840e-02	0028	1.3714e+01	0004	2.0753e-06
1.1900e-02	0028	1.3727e+01	0004	2.0772e-06
1.1960e-02	0028	1.3711e+01	0004	2.0604e-06
1.2020e-02	0028	1.3732e+01	0004	2.0724e-06
1.2080e-02	0028	1.3752e+01	0004	2.0634e-06
1.2140e-02	0028	1.3718e+01	0004	2.0594e-06
1.2200e-02	0028	1.3712e+01	0004	2.0467e-06
1.2260e-02	0028	1.3772e+01	0004	2.0397e-06
1.2320e-02	0028	1.3759e+01	0004	2.0469e-06
1.2380e-02	0028	1.3746e+01	0004	2.0539e-06
1.2440e-02	0028	1.3757e+01	0004	2.0484e-06
1.2500e-02	0028	1.3764e+01	0004	2.0519e-06
1.2560e-02	0028	1.3788e+01	0004	2.0521e-06
1.2620e-02	0028	1.3821e+01	0004	2.0465e-06
1.2680e-02	0028	1.3759e+01	0004	2.0189e-06
1.2740e-02	0028	1.3754e+01	0004	2.0076e-06
1.2800e-02	0028	1.3780e+01	0004	1.9868e-06
1.2860e-02	0028	1.3739e+01	0004	1.9812e-06
1.2920e-02	0028	1.3758e+01	0004	1.9874e-06
1.2980e-02	0028	1.3734e+01	0004	1.9779e-06
1.3040e-02	0028	1.3812e+01	0004	1.9789e-06
1.3100e-02	0028	1.3763e+01	0004	1.9653e-06
1.3160e-02	0029	1.3888e+01	0004	4.7949e-06
1.3220e-02	0028	1.3722e+01	0004	2.3046e-06
1.3280e-02	0028	1.3697e+01	0004	1.9533e-06
1.3340e-02	0027	1.3575e+01	0004	2.2441e-06
1.3400e-02	0027	1.3822e+01	0004	2.1684e-06
1.3460e-02	0028	1.3711e+01	0004	1.8459e-06
1.3520e-02	0027	1.3650e+01	0004	2.1447e-06
1.3580e-02	0027	1.3775e+01	0004	2.1385e-06
1.3640e-02	0027	1.4975e+01	0004	2.1345e-06
1.3700e-02	0027	1.4951e+01	0004	2.1392e-06
1.3760e-02	0027	1.3635e+01	0004	2.1240e-06
1.3820e-02	0027	1.3597e+01	0004	2.3612e-06
1.3880e-02	0027	1.3667e+01	0004	2.3540e-06
1.3940e-02	0027	1.3646e+01	0004	2.1610e-06
1.4000e-02	0027	1.3656e+01	0004	2.1617e-06
1.4060e-02	0028	1.3811e+01	0004	1.9019e-06
1.4120e-02	0027	1.3606e+01	0004	2.3221e-06
1.4180e-02	0027	1.3696e+01	0004	2.3480e-06
1.4240e-02	0027	1.3653e+01	0004	2.3234e-06
1.4300e-02	0028	1.3805e+01	0004	3.8582e-06
1.4360e-02	0028	1.3992e+01	0004	2.1401e-06
1.4420e-02	0028	1.3817e+01	0004	1.8304e-06
1.4480e-02	0027	1.3614e+01	0004	2.2619e-06
1.4540e-02	0027	1.3675e+01	0004	2.2353e-06
1.4600e-02	0027	1.3611e+01	0004	2.2230e-06
1.4660e-02	0027	1.3664e+01	0004	2.2072e-06
1.4720e-02	0027	1.3657e+01	0004	2.2040e-06
1.4780e-02	0027	1.3645e+01	0004	2.3149e-06
1.4840e-02	0027	1.3664e+01	0004	2.3117e-06
1.4900e-02	0027	1.3736e+01	0004	2.2169e-06
1.4960e-02	0027	1.3704e+01	0004	2.2915e-06
				
